<?xml version="1.0" encoding="utf-8"?>
<!-- Generator: Adobe Illustrator 26.0.0, SVG Export Plug-In . SVG Version: 6.00 Build 0)  -->
<svg version="1.1" id="Layer_1" xmlns="http://www.w3.org/2000/svg" xmlns:xlink="http://www.w3.org/1999/xlink" x="0px" y="0px"
	 viewBox="0 0 1024 1024" style="enable-background:new 0 0 1024 1024;" xml:space="preserve">
<style type="text/css">
	.st0{fill:url(#SVGID_1_);}
	.st1{fill:url(#SVGID_00000036250635865247218100000002034592077182573750_);}
	.st2{fill:url(#SVGID_00000160882092993508556390000018247895762894878655_);}
	.st3{fill:url(#SVGID_00000154393595681114692180000015318901911506076073_);}
</style>
<g>
	<linearGradient id="SVGID_1_" gradientUnits="userSpaceOnUse" x1="0.5" y1="512" x2="1023.5" y2="512">
		<stop  offset="0" style="stop-color:#366994"/>
		<stop  offset="1" style="stop-color:#387EB8"/>
	</linearGradient>
	<rect x="0.5" y="0.5" class="st0" width="1023" height="1023"/>
	<path d="M1023,1v1022H1V1H1023 M1024,0H0v1024h1024V0L1024,0z"/>
</g>
<g>
	
		<linearGradient id="SVGID_00000041982236659687150670000015281935853987608503_" gradientUnits="userSpaceOnUse" x1="163" y1="512" x2="224.4223" y2="512">
		<stop  offset="0" style="stop-color:#FFC331"/>
		<stop  offset="1" style="stop-color:#FFE052"/>
	</linearGradient>
	<path style="fill:url(#SVGID_00000041982236659687150670000015281935853987608503_);" d="M179.4,825.3h45v14.3H163V184.4h61.4v14.3
		h-45"/>
</g>
<linearGradient id="SVGID_00000160177642748850858920000009741064293128413834_" gradientUnits="userSpaceOnUse" x1="797.697" y1="512" x2="861.1667" y2="512">
	<stop  offset="0" style="stop-color:#FFC331"/>
	<stop  offset="1" style="stop-color:#FFE052"/>
</linearGradient>
<polygon style="fill:url(#SVGID_00000160177642748850858920000009741064293128413834_);" points="844.8,825.3 844.8,200.8 
	797.7,200.8 797.7,184.4 861.2,184.4 861.2,839.6 797.7,839.6 797.7,825.3 "/>
<linearGradient id="SVGID_00000000184025255426151880000003201283616515244451_" gradientUnits="userSpaceOnUse" x1="256" y1="512" x2="768" y2="512">
	<stop  offset="0" style="stop-color:#FFC331"/>
	<stop  offset="1" style="stop-color:#FFE052"/>
</linearGradient>
<path style="fill:url(#SVGID_00000000184025255426151880000003201283616515244451_);" d="M608,512c0,22.2-1.2,43.6-3.3,64H419.3
	c-2.1-20.4-4.2-41.8-4.2-64s2.1-43.6,4.2-64h185.4C606.8,468.4,608,489.8,608,512z M759.9,448c5.3,20.5,8.1,41.9,8.1,64
	c0,22.1-2.8,43.5-8.1,64H636.8c2.1-20.6,3.2-42.9,3.2-64c0-22-1.1-43.4-3.2-64H759.9z M749.4,416H632.7
	c-10-63.9-29.8-117.4-55.3-151.6C655.8,285.1,719.4,341.9,749.4,416z M600.3,416H423.7c6.1-36.4,15.5-68.6,27-94.6
	c10.5-23.6,22.2-40.7,33.5-51.5c11.2-10.6,20.5-13.8,27.8-13.8s16.6,3.2,27.8,13.8c11.3,10.8,23,27.9,33.5,51.5
	C584.8,347.4,594.2,379.6,600.3,416L600.3,416z M274.6,416c30-74.1,93.6-130.9,172-151.6c-25.5,34.2-45.3,87.7-55.3,151.6H274.6z
	 M387.2,448c-2.1,20.6-4.1,42-4.1,64c0,21.1,2,43.4,4.1,64H264.1c-5.3-20.5-8.1-41.9-8.1-64c0-22.1,2.8-43.5,8.1-64H387.2z
	 M450.7,702.6c-11.5-26-20.9-58.2-27-94.6h176.6c-6.1,36.4-15.5,68.6-27,94.6c-10.5,23.7-22.2,40.8-33.5,51.6
	c-11.2,10.6-20.5,13.8-28.7,13.8c-6.4,0-15.7-3.2-26.9-13.8C472.9,743.4,461.2,726.3,450.7,702.6L450.7,702.6z M446.6,759.6
	c-78.4-20.7-142-77.5-172-151.6h116.7C401.3,671.9,421.1,725.4,446.6,759.6L446.6,759.6z M577.4,759.6
	c25.5-34.2,45.3-87.7,55.3-151.6h116.7C719.4,682.1,655.8,738.9,577.4,759.6L577.4,759.6z"/>
</svg>
