<?xml version="1.0" encoding="utf-8"?>
<!-- Generator: Adobe Illustrator 26.0.0, SVG Export Plug-In . SVG Version: 6.00 Build 0)  -->
<svg version="1.1" xmlns="http://www.w3.org/2000/svg" xmlns:xlink="http://www.w3.org/1999/xlink" x="0px" y="0px"
	 viewBox="0 0 818 818" style="enable-background:new 0 0 818 818;" xml:space="preserve">
<style type="text/css">
	.st0{fill:url(#SVGID_1_);stroke:#000000;stroke-miterlimit:10;}
	.st1{fill:url(#SVGID_00000089541483809472570520000016429783965127457972_);}
</style>
<g id="Layer_2">
	<linearGradient id="SVGID_1_" gradientUnits="userSpaceOnUse" x1="1.359022e-07" y1="409" x2="818" y2="409">
		<stop  offset="0" style="stop-color:#366994"/>
		<stop  offset="1" style="stop-color:#387EB8"/>
	</linearGradient>
	<rect x="0" class="st0" width="818" height="818"/>
</g>
<g id="Layer_1">
	
		<linearGradient id="SVGID_00000134218982943946324080000013769276830962060703_" gradientUnits="userSpaceOnUse" x1="121" y1="409" x2="697" y2="409">
		<stop  offset="0" style="stop-color:#FFC331"/>
		<stop  offset="1" style="stop-color:#FFE052"/>
	</linearGradient>
	<path style="fill:url(#SVGID_00000134218982943946324080000013769276830962060703_);" d="M249,313h320v192H249V313z M633,217
		c35.3,0,64,28.6,64,64v80c-26.5,0-48,21.5-48,48s21.5,48,48,48v80c0,35.3-28.7,64-64,64H185c-35.4,0-64-28.7-64-64v-80
		c26.5,0,48-21.5,48-48s-21.5-48-48-48v-80c0-35.4,28.6-64,64-64H633z M217,505c0,17.7,14.3,32,32,32h320c17.7,0,32-14.3,32-32V313
		c0-17.7-14.3-32-32-32H249c-17.7,0-32,14.3-32,32V505z"/>
</g>
</svg>
